/* XPM */
static char * html_file_xpm[] = {
"48 48 368 2",
"  	c None",
". 	c #000000",
"+ 	c #8C8C8C",
"@ 	c #AAAAAA",
"# 	c #A7A7A6",
"$ 	c #999999",
"% 	c #121212",
"& 	c #464646",
"* 	c #828282",
"= 	c #B2B2B2",
"- 	c #B5B5B5",
"; 	c #B1B1B0",
"> 	c #AFAFAE",
", 	c #AEAEAD",
"' 	c #4D4D4C",
") 	c #161616",
"! 	c #767676",
"~ 	c #9F9F9F",
"{ 	c #B9B9B8",
"] 	c #B8B8B7",
"^ 	c #B6B6B5",
"/ 	c #B4B4B4",
"( 	c #B0B0B0",
"_ 	c #AFAFAF",
": 	c #ADADAC",
"< 	c #989897",
"[ 	c #181818",
"} 	c #9D9D9D",
"| 	c #AAAAA9",
"1 	c #ACACAB",
"2 	c #B0B0AF",
"3 	c #B8B8B8",
"4 	c #B7B7B7",
"5 	c #B6B6B6",
"6 	c #B5B5B4",
"7 	c #B4B4B3",
"8 	c #B2B2B1",
"9 	c #ADADAD",
"0 	c #252525",
"a 	c #D3D3D3",
"b 	c #7A7A7A",
"c 	c #878787",
"d 	c #A8A8A7",
"e 	c #B3B3B3",
"f 	c #B1B1B1",
"g 	c #878786",
"h 	c #D5D5D5",
"i 	c #E1E1E0",
"j 	c #7F7F7F",
"k 	c #6B6B6B",
"l 	c #808080",
"m 	c #ABABAB",
"n 	c #B3B3B2",
"o 	c #AEAEAE",
"p 	c #131313",
"q 	c #A0A0A0",
"r 	c #DDDDDD",
"s 	c #DBDBDB",
"t 	c #CBCBCB",
"u 	c #5A5A59",
"v 	c #787878",
"w 	c #999998",
"x 	c #A4A4A4",
"y 	c #A8A8A8",
"z 	c #A6A6A6",
"A 	c #A4A4A3",
"B 	c #A5A5A5",
"C 	c #ACACAC",
"D 	c #868686",
"E 	c #191919",
"F 	c #D4D4D4",
"G 	c #DFDFDF",
"H 	c #525252",
"I 	c #727272",
"J 	c #8F8F8F",
"K 	c #919293",
"L 	c #747F8C",
"M 	c #6D7A7D",
"N 	c #657473",
"O 	c #6E766D",
"P 	c #747870",
"Q 	c #797B79",
"R 	c #8F8F8E",
"S 	c #9A9A99",
"T 	c #A1A1A0",
"U 	c #E4E4E4",
"V 	c #626261",
"W 	c #4D4D4D",
"X 	c #5D5D5D",
"Y 	c #6E6E6E",
"Z 	c #67727D",
"` 	c #5B83AB",
" .	c #93A5A7",
"..	c #7D9896",
"+.	c #8E9D8A",
"@.	c #94A17E",
"#.	c #81906F",
"$.	c #818C66",
"%.	c #70765A",
"&.	c #747471",
"*.	c #9C9C9B",
"=.	c #646464",
"-.	c #5C5C5C",
";.	c #535353",
">.	c #616161",
",.	c #6F6F6F",
"'.	c #5A7086",
").	c #799BB5",
"!.	c #D7DCC8",
"~.	c #F0F0D5",
"{.	c #CAD3C4",
"].	c #7E99A6",
"^.	c #929A97",
"/.	c #AAA38F",
"(.	c #BBAE89",
"_.	c #AEAB82",
":.	c #AA9E66",
"<.	c #6E6D65",
"[.	c #848484",
"}.	c #9A9A9A",
"|.	c #A9A9A9",
"1.	c #141414",
"2.	c #424242",
"3.	c #777777",
"4.	c #757575",
"5.	c #606A74",
"6.	c #80A3C1",
"7.	c #F2F4DE",
"8.	c #FAFAE3",
"9.	c #FCFBDB",
"0.	c #FAFAD4",
"a.	c #EFF1D4",
"b.	c #DDE3CE",
"c.	c #C6C7A4",
"d.	c #F4EDAA",
"e.	c #C8C196",
"f.	c #BDB074",
"g.	c #8D855C",
"h.	c #686765",
"i.	c #1A1A1A",
"j.	c #8E8E8E",
"k.	c #828281",
"l.	c #8D8D8D",
"m.	c #6F7072",
"n.	c #4C79A5",
"o.	c #C3CCBE",
"p.	c #FAF9D6",
"q.	c #FBFBDB",
"r.	c #FCFCDD",
"s.	c #FBFBDF",
"t.	c #FBFBD4",
"u.	c #FBFBE2",
"v.	c #CBCDA9",
"w.	c #DFDCA2",
"x.	c #CFCB98",
"y.	c #A7A175",
"z.	c #928B60",
"A.	c #686658",
"B.	c #6F6F6E",
"C.	c #909090",
"D.	c #A9A9A8",
"E.	c #272727",
"F.	c #030303",
"G.	c #A2A2A2",
"H.	c #6D7984",
"I.	c #4880B6",
"J.	c #93ADAA",
"K.	c #C0C8A1",
"L.	c #D6DDB1",
"M.	c #EDF1C5",
"N.	c #F3F2C5",
"O.	c #F9F7C8",
"P.	c #FBF8C6",
"Q.	c #D6D1A4",
"R.	c #BFBB95",
"S.	c #F4EBA2",
"T.	c #9A9675",
"U.	c #5F6252",
"V.	c #6B6A51",
"W.	c #5A5A5A",
"X.	c #BCBCBC",
"Y.	c #5C7389",
"Z.	c #4980B5",
"`.	c #548ABC",
" +	c #5F8FB8",
".+	c #779AA6",
"++	c #9ABA90",
"@+	c #93B38B",
"#+	c #B6BC8E",
"$+	c #D5C492",
"%+	c #CEBB8C",
"&+	c #B0AA89",
"*+	c #899081",
"=+	c #385061",
"-+	c #293D4C",
";+	c #5C5F49",
">+	c #484A48",
",+	c #707070",
"'+	c #979797",
")+	c #B9B9B9",
"!+	c #292929",
"~+	c #BBBBBB",
"{+	c #C2C2C2",
"]+	c #BDBDBC",
"^+	c #4F6984",
"/+	c #467DB2",
"(+	c #4E84B8",
"_+	c #5285B4",
":+	c #6C8DA5",
"<+	c #B4BC93",
"[+	c #B1B68D",
"}+	c #B7B487",
"|+	c #BFB489",
"1+	c #CCBA87",
"2+	c #CDB884",
"3+	c #5D7173",
"4+	c #20405B",
"5+	c #253D4F",
"6+	c #444F4C",
"7+	c #373E42",
"8+	c #656565",
"9+	c #919190",
"0+	c #BABABA",
"a+	c #CDCDCD",
"b+	c #C5C5C5",
"c+	c #516A84",
"d+	c #4274AA",
"e+	c #497BAF",
"f+	c #4C7CA9",
"g+	c #547EA2",
"h+	c #D7CDAA",
"i+	c #DAC18F",
"j+	c #C6B586",
"k+	c #B2A67D",
"l+	c #938E76",
"m+	c #465E6F",
"n+	c #234663",
"o+	c #213D54",
"p+	c #233C4F",
"q+	c #283E4D",
"r+	c #343B40",
"s+	c #606060",
"t+	c #C0C0BF",
"u+	c #7D7D7C",
"v+	c #505050",
"w+	c #D8D8D8",
"x+	c #D1D1D1",
"y+	c #BEBEBE",
"z+	c #627487",
"A+	c #396A9D",
"B+	c #4271A3",
"C+	c #44729C",
"D+	c #748E9C",
"E+	c #E0D6AA",
"F+	c #D9C791",
"G+	c #AFAE7F",
"H+	c #A9A075",
"I+	c #51656D",
"J+	c #274966",
"K+	c #213F59",
"L+	c #223C4E",
"M+	c #223C4F",
"N+	c #213B4E",
"O+	c #393C3F",
"P+	c #5F5F5F",
"Q+	c #C0C0C0",
"R+	c #C3C3C2",
"S+	c #C2C2C1",
"T+	c #151514",
"U+	c #E3E3E3",
"V+	c #DEDEDD",
"W+	c #CACACA",
"X+	c #888D93",
"Y+	c #325E8D",
"Z+	c #396596",
"`+	c #3C6791",
" @	c #5E7A8F",
".@	c #E5D6A1",
"+@	c #D0C690",
"@@	c #A5A579",
"#@	c #7B8370",
"$@	c #475B65",
"%@	c #3D4E5B",
"&@	c #203B4F",
"*@	c #203B4D",
"=@	c #213C4F",
"-@	c #233949",
";@	c #414142",
">@	c #666665",
",@	c #939392",
"'@	c #C3C3C3",
")@	c #C6C6C6",
"!@	c #C4C4C4",
"~@	c #9E9E9E",
"{@	c #E6E6E6",
"]@	c #B1B2B2",
"^@	c #445E7B",
"/@	c #2C5886",
"(@	c #315B85",
"_@	c #375D81",
":@	c #E2D9AA",
"<@	c #CEBE8A",
"[@	c #939072",
"}@	c #344F63",
"|@	c #525B58",
"1@	c #334758",
"2@	c #213C51",
"3@	c #2E373E",
"4@	c #4B4B4B",
"5@	c #BCBCBB",
"6@	c #C8C8C7",
"7@	c #C9C9C8",
"8@	c #2A2A2A",
"9@	c #050B0F",
"0@	c #1F3C54",
"a@	c #1F3B4E",
"b@	c #253743",
"c@	c #3D3D3D",
"d@	c #CCCCCC",
"e@	c #C7C7C6",
"f@	c #FFFFFF",
"g@	c #1E3D55",
"h@	c #233848",
"i@	c #3A3B3C",
"j@	c #747473",
"k@	c #CFCFCF",
"l@	c #C9C9C9",
"m@	c #C7C7C7",
"n@	c #A0A09F",
"o@	c #2C3741",
"p@	c #3C3C3C",
"q@	c #6D6D6D",
"r@	c #939393",
"s@	c #D2D2D1",
"t@	c #D0D0CF",
"u@	c #4A4A4A",
"v@	c #595959",
"w@	c #949494",
"x@	c #D6D6D6",
"y@	c #D2D2D2",
"z@	c #929292",
"A@	c #747474",
"B@	c #D7D7D6",
"C@	c #DBDBDA",
"D@	c #171717",
"E@	c #C8C8C8",
"F@	c #DCDCDC",
"G@	c #E0E0DF",
"H@	c #E3E3E2",
"I@	c #A3A3A3",
"J@	c #FDFDFD",
"K@	c #F9F9F9",
"L@	c #F6F6F6",
"M@	c #F1F1F0",
"N@	c #EDEDED",
"O@	c #EBEBEB",
"P@	c #EAEAEA",
"Q@	c #969696",
"R@	c #7D7D7D",
"S@	c #FBFBFB",
"T@	c #F7F7F7",
"U@	c #F5F5F5",
"V@	c #F3F3F2",
"W@	c #343434",
"X@	c #E2E2E2",
"Y@	c #A7A7A7",
"Z@	c #373737",
"`@	c #383838",
"                                                                                                ",
"                                                                                                ",
"                                                                                                ",
"                                                                                                ",
"                                                                                                ",
"                                                                                                ",
"                                                    . .                                         ",
"                                                . . + + .                                       ",
"                                            . . + @ # $ %                                       ",
"                                  . . . & * = - = ; > , '                                       ",
"                          . . ) ) ! ~ { ] ] ^ / = ( _ : < .                                     ",
"                        [ } | 1 2 3 3 3 4 5 6 7 8 ; > 9 9 0                                     ",
"                      . a b c ~ d ; 7 - / / e = f 2 , , : g                                     ",
"                    . h i j k l ~ m ( 8 n 2 2 9 _ o 9 9 : : p                                   ",
"                  . q r s t u v w x @ m y z A A B z y m C 9 D                                   ",
"                  E F G r a H I J w K L M N O P Q R S T d 1 9 p                                 ",
"                . m U # V W X Y D Z `  ...+.@.#.$.%.&.+ *.# : g                                 ",
"                . =.-.;.H >.,.Y '.).!.~.{.].^./.(._.:.<.[.}.|._ 1.                              ",
"                . 2.j 3.3.v 4.5.6.7.8.9.0.a.b.c.d.e.f.g.h.D ~ 9 c .                             ",
"                  i.j.< k.l.m.n.o.p.q.r.s.t.u.v.w.x.y.z.A.B.C.D.7 E.                            ",
"                  F.f y G.}.H.I.J.K.L.M.N.O.P.Q.R.S.T.U.V.W.l T n R .                           ",
"                  . X.5 e y Y.Z.`. +.+++@+#+$+%+&+*+=+-+;+>+,+'+( )+!+                          ",
"                  . ~+{+]+o ^+/+(+_+:+<+[+}+|+1+2+3+4+5+6+7+8+9+_ 0+y .                         ",
"                  . o a+b+/ c+d+e+f+g+h+i+j+k+l+m+n+o+p+q+r+s+l., ]+t+u+.                       ",
"                  . v+w+x+y+z+A+B+C+D+E+F+G+H+I+J+K+L+M+N+O+P++ ( Q+R+S+T+                      ",
"                    . U+V+W+X+Y+Z+`+ @.@+@@@#@$@%@&@*@=@-@;@>@,@- '@)@!@~@.                     ",
"                    . r {@w+]@^@/@(@_@:@<@[@}@|@1@2@*@*@3@4@I ~ 5@6@7@)@!@8@                    ",
"            . . . . . . . . . . . . . . . . . . 9@0@a@b@c@W.[.9 b+d@t 7@e@, .                   ",
"            . . f@. f@. f@f@f@. f@. f@. f@. . . . g@h@i@v+j@} ]+d@k@a+t l@m@n@.                 ",
"            . . f@. f@. . f@. . f@f@f@. f@. . . . o@p@v+q@r@5 t s@s@t@a+t !@C..                 ",
"            . . f@f@f@. . f@. . f@. f@. f@. . . . u@v@j@w@e l@a x@F y@t@z@) .                   ",
"            . . f@. f@. . f@. . f@. f@. f@. . . . A@D G.~+a+B@C@w+x@9 D@.                       ",
"            . . f@. f@. . f@. . f@. f@. f@f@f@. . |.- E@h F@G r 2 D@. . . .                     ",
"            . . . . . . . . . . . . . . . . . . . a w+G@H@h I@. . . . . . . .                   ",
"                        . y+f@f@f@f@J@K@L@M@N@O@P@P@P@)@Q@. . . . . . .                         ",
"                        . R@f@f@f@f@f@J@S@K@T@U@V@q W@. . . . . .                               ",
"                          . f@f@f@f@f@f@J@S@k@J . . . . . .                                     ",
"                          . y+f@f@f@f@X@Y@Z@. . . . .                                           ",
"                            `@f@X@~+R@. . . . .                                                 ",
"                            . . . . . . .                                                       ",
"                              . .                                                               ",
"                                                                                                ",
"                                                                                                ",
"                                                                                                ",
"                                                                                                ",
"                                                                                                ",
"                                                                                                ",
"                                                                                                "};
